d:\testing\EgyetemApi-master\EgyetemApi-master\src\test\java\com\logmein\testing\BookClient.java
d:\testing\EgyetemApi-master\EgyetemApi-master\src\test\java\com\logmein\testing\Book.java
d:\testing\EgyetemApi-master\EgyetemApi-master\src\test\java\com\logmein\testing\BookTest.java
d:\testing\EgyetemApi-master\EgyetemApi-master\src\test\java\com\logmein\testing\BookResponse.java
